…
<br />

``` r
movie_data %>% 
  group_by(year) %>% 
  summarize(ttl_count = n(),
            min_earnings = min(gross_earning),
            avg_earnings = mean(gross_earning),
            max_earnings = max(gross_earning),
            ttl_earnings = sum(gross_earning)
            )
```

    ## # A tibble: 101 × 6
    ##     year ttl_count min_earnings avg_earnings max_earnings ttl_earnings
    ##    <dbl>     <int>        <dbl>        <dbl>        <dbl>        <dbl>
    ##  1  1920         1        47           47           47           47   
    ##  2  1921         1         5.45         5.45         5.45         5.45
    ##  3  1922         1       258          258          258          258   
    ##  4  1924         1         0.98         0.98         0.98         0.98
    ##  5  1925         2         0.05         2.75         5.45         5.5 
    ##  6  1926         1         1.03         1.03         1.03         1.03
    ##  7  1927         2         0.54         0.89         1.24         1.78
    ##  8  1928         2         0.02         5.66        11.3         11.3 
    ##  9  1930         1         3.27         3.27         3.27         3.27
    ## 10  1931         3         0.02         3.11         9.28         9.33
    ## # … with 91 more rows
…
<br />

``` r
movie_data %>% 
  group_by(genre.2) %>% 
  summarize(ttl_count = n(),
            min_earnings = min(gross_earning),
            avg_earnings = mean(gross_earning),
            max_earnings = max(gross_earning),
            ttl_earnings = sum(gross_earning)
            ) 
```

    ## # A tibble: 21 × 6
    ##    genre.2      ttl_count min_earnings avg_earnings max_earnings ttl_earnings
    ##    <chr>            <int>        <dbl>        <dbl>        <dbl>        <dbl>
    ##  1 " Action"           18         0.52        105.         261          1893.
    ##  2 " Adventure"       111         0.13        196.         936         21761.
    ##  3 " Biography"        18         0.04         57.2        246          1030.
    ##  4 " Comedy"           39         0.29         62.4        363          2434.
    ##  5 " Crime"            79         0            60.2        534          4754.
    ##  6 " Drama"           331         0.01         48.9        718         16193.
    ##  7 " Family"           25         0.93        137.         435          3418.
    ##  8 " Fantasy"          17         0            32.5        200           552.
    ##  9 " Film-Noir"        11         2.11         11.7         59           129.
    ## 10 " History"          12         0.05         19.6         70.6         235.
    ## # … with 11 more rows
…
